%YAML 1.1
%TAG !u! tag:unity3d.com,2011:
--- !u!1001 &2363768026544650642
PrefabInstance:
  m_ObjectHideFlags: 0
  serializedVersion: 2
  m_Modification:
    serializedVersion: 3
    m_TransformParent: {fileID: 0}
    m_Modifications:
    - target: {fileID: 2885161576314354680, guid: 11b6342601a487e45a8ca8ed561a9b7a, type: 3}
      propertyPath: GridXSize
      value: 1
      objectReference: {fileID: 0}
    - target: {fileID: 2885161576314354680, guid: 11b6342601a487e45a8ca8ed561a9b7a, type: 3}
      propertyPath: GridZSize
      value: 1
      objectReference: {fileID: 0}
    - target: {fileID: 2885161576314354680, guid: 11b6342601a487e45a8ca8ed561a9b7a, type: 3}
      propertyPath: m_Enabled
      value: 1
      objectReference: {fileID: 0}
    - target: {fileID: 2885161576314354680, guid: 11b6342601a487e45a8ca8ed561a9b7a, type: 3}
      propertyPath: GridDistance
      value: 0
      objectReference: {fileID: 0}
    - target: {fileID: 2885161576314354680, guid: 11b6342601a487e45a8ca8ed561a9b7a, type: 3}
      propertyPath: RandomOffset
      value: 0
      objectReference: {fileID: 0}
    - target: {fileID: 2885161576785209578, guid: 11b6342601a487e45a8ca8ed561a9b7a, type: 3}
      propertyPath: m_RootOrder
      value: 0
      objectReference: {fileID: 0}
    - target: {fileID: 2885161576785209578, guid: 11b6342601a487e45a8ca8ed561a9b7a, type: 3}
      propertyPath: m_LocalPosition.x
      value: 138.99
      objectReference: {fileID: 0}
    - target: {fileID: 2885161576785209578, guid: 11b6342601a487e45a8ca8ed561a9b7a, type: 3}
      propertyPath: m_LocalPosition.y
      value: 1
      objectReference: {fileID: 0}
    - target: {fileID: 2885161576785209578, guid: 11b6342601a487e45a8ca8ed561a9b7a, type: 3}
      propertyPath: m_LocalPosition.z
      value: 23.18
      objectReference: {fileID: 0}
    - target: {fileID: 2885161576785209578, guid: 11b6342601a487e45a8ca8ed561a9b7a, type: 3}
      propertyPath: m_LocalRotation.w
      value: 0.7071068
      objectReference: {fileID: 0}
    - target: {fileID: 2885161576785209578, guid: 11b6342601a487e45a8ca8ed561a9b7a, type: 3}
      propertyPath: m_LocalRotation.x
      value: 0
      objectReference: {fileID: 0}
    - target: {fileID: 2885161576785209578, guid: 11b6342601a487e45a8ca8ed561a9b7a, type: 3}
      propertyPath: m_LocalRotation.y
      value: -0.7071068
      objectReference: {fileID: 0}
    - target: {fileID: 2885161576785209578, guid: 11b6342601a487e45a8ca8ed561a9b7a, type: 3}
      propertyPath: m_LocalRotation.z
      value: 0
      objectReference: {fileID: 0}
    - target: {fileID: 2885161576785209578, guid: 11b6342601a487e45a8ca8ed561a9b7a, type: 3}
      propertyPath: m_LocalEulerAnglesHint.x
      value: 0
      objectReference: {fileID: 0}
    - target: {fileID: 2885161576785209578, guid: 11b6342601a487e45a8ca8ed561a9b7a, type: 3}
      propertyPath: m_LocalEulerAnglesHint.y
      value: -90
      objectReference: {fileID: 0}
    - target: {fileID: 2885161576785209578, guid: 11b6342601a487e45a8ca8ed561a9b7a, type: 3}
      propertyPath: m_LocalEulerAnglesHint.z
      value: 0
      objectReference: {fileID: 0}
    - target: {fileID: 2885161576785399288, guid: 11b6342601a487e45a8ca8ed561a9b7a, type: 3}
      propertyPath: m_Name
      value: UMARandomGeneratedCharacter Variant
      objectReference: {fileID: 0}
    m_RemovedComponents: []
    m_RemovedGameObjects: []
    m_AddedGameObjects: []
    m_AddedComponents: []
  m_SourcePrefab: {fileID: 100100000, guid: 11b6342601a487e45a8ca8ed561a9b7a, type: 3}
